
UPDATE `underweb_base`.`parcelas` SET `origem` = '1', `aplicacao` = '0', `status` = 'Pendente', `VALOR_PAGO` = '0', `DATA_PAGAMENTO` = '0000-00-00', `OUTROS_ACRESCIMOS` = '0', `DATA_PROCESSADO` = '0000-00-00 00:00:00', `USUARIO_ID` = '0' WHERE `parcelas`.`id` = 18173;

Rollback

Update parcelas set origem =13 , aplicacao=4,status=Processada, VALOR_PAGO=2993.78 , DATA_PAGAMENTO=2014-04-17, OUTROS_ACRESCIMOS=993.78,DATA_PROCESSADO=2014-04-17 15:51:52, USUARIO_ID=121;
