


UPDATE `underweb_base`.`parcelas` SET  `VALOR_PAGO` = '209.84', `OUTROS_ACRESCIMOS` = '39.84 ' WHERE `parcelas`.`id` = 17879; 
UPDATE `underweb_base`.`parcelas` SET `VALOR_PAGO` = '191.32', `OUTROS_ACRESCIMOS` = '41.32' WHERE `parcelas`.`id` = 15854;
UPDATE `underweb_base`.`parcelas` SET `VALOR_PAGO` = '630.53', `OUTROS_ACRESCIMOS` = '30.53' WHERE `parcelas`.`id` = 15885;


Rollback

update parcela set `VALOR_PAGO`=170.00 ,`OUTROS_ACRESCIMOS`=0 where `id`= 17879 ;
update parcela set `VALOR_PAGO`=150.00 ,`OUTROS_ACRESCIMOS`=0 where `id`= 15854 ;
update parcela set `VALOR_PAGO`=600.00 ,`OUTROS_ACRESCIMOS`=0 where `id`= 15885 ;