1-Passo
INSERT INTO `underweb_base`.`operadoras` (`ID`, `NOME`, `EMAIL`) VALUES (NULL, 'GOLDEN CROSS', NULL);
2-Passo
INSERT INTO `underweb_base`.`operadoras_planosdesaude` (`OPERADORAS_ID`, `PLANOSDESAUDE_ID`) VALUES ('26', '100');
3-Passo
INSERT INTO `valorescobranca` (`id`, `idPlano`, `idCobranca`, `valor`, `COD_COBRANCA_PLANO`, `DESC_COBRANCA_PLANO`, `CUSTO_COBRANCA_PLANO`, `excluido_por`, `excluido_em`) VALUES
(NULL,100,1, 4, '', 'CADEIRA DE RODAS SIMPLES', 0.00, NULL, NULL),
(NULL,100,2, 3.5, '', 'CADEIRA HIGIÊNICA SIMPLES', 0.00, NULL, NULL),
(NULL,100,3, 4, '', 'CAMA HOSPITALAR SIMPLES 1,90 (COMPLETA: CAMA, COLCHÌO, GRADES)', 0.00, NULL, NULL),
(NULL,100,4, 6.5, '', 'CAMA HOSPITALAR OBESO (03 MOVIMENTOS COMPLETA: CAMA, COLCHÌO, GRADES)', 0.00, NULL, NULL),
(NULL,100,5, 11, '', 'CAMA ELTRICA 1,90 COMPLETA', 0.00, NULL, NULL),
(NULL,100,6, 6, '', 'CADEIRA HIGIENICA (OBESO)', 0.00, NULL, NULL),
(NULL,100,7, 6.5, '', 'CADEIRA DE RODAS (OBESO)', 0.00, NULL, NULL),
(NULL,100,8, 35.8, '', 'MONITOR MULTIPARAMTRICO', 0.00, NULL, NULL),
(NULL,100,10, 136.3, '', 'RECARGA TORPEDO OXIGENIO 6,2 M3', 0.00, NULL, NULL),
(NULL,100,11, 84, '', 'APARELHO RESPIRADOR BIPAP DIARIA DE 24 HORAS', 0.00, NULL, NULL),
(NULL,100,12, 14, '', 'ASPIRADOR PORTATIL (BAIXA E MDIA COMPLEXIDADE)', 0.00, NULL, NULL),
(NULL,100,13, 20, '', 'BOMBA DE INFUSÌO PARA DIETA ALIMENTAR', 0.00, NULL, NULL),
(NULL,100,14, 16, '', 'BOMBA DE INFUSÌO PARA MEDICAMENTOS', 0.00, NULL, NULL),
(NULL,100,15, 0, '', 'TORPEDO DE OXIENIO 6 M3', 0.00, NULL, NULL),
(NULL,100,17, 21, '', 'CONCENTRADOR DE OXIGENIO', 0.00, NULL, NULL),
(NULL,100,18, 213, '', 'CONSULTA EM DOMICILIO', 0.00, NULL, NULL),
(NULL,100,19, 283, '', 'CONSULTA MEDICO ESPECIALISTA EM DOMICILIO', 0.00, NULL, NULL),
(NULL,100,20, 195, '', 'DIARIA DE ASSISTENCIA 12h', 0.00, NULL, NULL),
(NULL,100,21, 282, '', 'DIARIA DE ASSISTENCIA 24h SEM RESPIRADOR', 0.00, NULL, NULL),
(NULL,100,22, 58, '', 'ECG DOMICILIAR', 0.00, NULL, NULL),
(NULL,100,24, 58, '', 'FISIOTERAPIA MOTORA E RESPIRATORIA POR SESSÌO', 0.00, NULL, NULL),
(NULL,100,25, 35, '', 'FISIOTERAPIA MOTORA POR SESSÌO', 0.00, NULL, NULL),
(NULL,100,27, 35, '', 'FISIOTERAPIA RESPIRATîRIA POR SESSÌO', 0.00, NULL, NULL),
(NULL,100,28, 16, '', 'GASOTERAPIA OXIGENIO 2 A 10L/MIN [H]', 0.00, NULL, NULL),
(NULL,100,30, 0, '', 'GASTROSTOMIA', 0.00, NULL, NULL),
(NULL,100,31, 334, '', 'GERENCIADOR DE ENERGIA (BATERIA E NOBREAK)', 0.00, NULL, NULL),
(NULL,100,33, 3, '', 'GLICOSIMETRO', 0.00, NULL, NULL),
(NULL,100,34, 8, '', 'NEBULIZADOR + KIT NEBULIZADOR', 0.00, NULL, NULL),
(NULL,100,35, 8, '', 'OXIMETRO PULSO', 0.00, NULL, NULL),
(NULL,100,38, 0, '', 'TORPEDO DE OXIGENIO 01 M3', 0.00, NULL, NULL),
(NULL,100,38, 3, '', 'CILINDRO DE O² - 4 M ³', 0.00, NULL, NULL),
(NULL,100,40, 0, '', 'TROCA DE BOTTON', 0.00, NULL, NULL),
(NULL,100,41, 350, '', 'REMOÇÃO AMBULANCIA UTI C/MEDICO (IDA PERIMETRO URBANO)', 0.00, NULL, NULL),
(NULL,100,42, 450, '', 'REMOÇÃO  AMBULANCIA UTI C/MEDICO (IDA E VOLTA PERIMETRO URBANO)', 0.00, NULL, NULL),
(NULL,100,43, 150, '', 'REMOÇÃO  AMBULANCIA SIMPLES (IDA PERIMETRO URBANA)', 0.00, NULL, NULL),
(NULL,100,44, 250, '', 'REMOÇÃO  AMBULANCIA SIMPLES (IDA E VOLTA PERIMETRO URBANO)', 0.00, NULL, NULL),
(NULL,100,45, 33, '', 'VISITA TECNICO DE ENFERMAGEM 1X DIA', 0.00, NULL, NULL),
(NULL,100,46, 65, '', 'VISITA TECNICO DE ENFERMAGEM 2X DIA', 0.00, NULL, NULL),
(NULL,100,47, 98, '', 'VISITA TECNICO DE ENFERMAGEM 3X DIA', 0.00, NULL, NULL),
(NULL,100,51, 362, '', 'DIARIA DE ASSISTENCIA 24H COM RESPIRADOR CONTINUO', 0.00, NULL, NULL),
(NULL,100,52, 61, '', 'VISITA ASSISTENTE SOCIAL', 0.00, NULL, NULL),
(NULL,100,54, 61, '', 'VISITA ENFERMEIRO', 0.00, NULL, NULL),
(NULL,100,55, 65, '', 'VISITA FONOAUDIOLOGO', 0.00, NULL, NULL),
(NULL,100,56, 84, '', 'VISITA MEDICO ASSISTENTE', 0.00, NULL, NULL),
(NULL,100,57, 92, '', 'VISITA NUTRICIONISTA', 0.00, NULL, NULL),
(NULL,100,58, 0, '', 'VISITA PSICOLOGO', 0.00, NULL, NULL),
(NULL,100,59, 58, '', 'VISITA TERAPEUTA OCUPACIONAL', 0.00, NULL, NULL),
(NULL,100,60, 142, '', 'DIARIA DE ASSISTENCIA 06H', 0.00, NULL, NULL),
(NULL,100,61, 0, '', 'DIARIA DE ASSISTENCIA 08H', 0.00, NULL, NULL),
(NULL,100,62, 0, '', 'PROCEDIMENTOS DE ENFERMAGEM', 0.00, NULL, NULL),
(NULL,100,63, 0, '', 'CADEIRA DE RODAS ESPECIAL (TETRAPLGICO)', 0.00, NULL, NULL),
(NULL,100,64, 7, '', 'ASPIRADOR CIRURGICO (ALTA COMPLEXIDADE)', 0.00, NULL, NULL),
(NULL,100,65, 0, '', 'CADEIRA HIGIENICA ESPECIAL (TETRAPLGICA)', 0.00, NULL, NULL),
(NULL,100,66, 6.5, '', 'CAMA HOSPITALAR SIMPLES 2,20 (COMPLETA: CAMA, COLCHÌO, GRADES)', 0.00, NULL, NULL),
(NULL,100,67, 0, '', 'CAMA ELTRICA 2,20 COMPLETA', 0.00, NULL, NULL),
(NULL,100,69, 0, '', 'TORPEDO DE OXIGENIO DE 10 M3', 0.00, NULL, NULL),
(NULL,100,70, 27, '', 'COLCHÌO PNEUMATICO', 0.00, NULL, NULL),
(NULL,100,71, 0, '', 'BERÇO', 0.00, NULL, NULL),
(NULL,100,72, 2.5, '', 'ANDADOR', 0.00, NULL, NULL),
(NULL,100,73, 0, '', 'MULETA (PAR)', 0.00, NULL, NULL),
(NULL,100,74, 1, '', 'ESCADA COM 2 DEGRAUS', 0.00, NULL, NULL),
(NULL,100,77, 0, '', 'DIARIA DE VENTILAÇÃO MECÂNICA INTERMITENTE', 0.00, NULL, NULL),
(NULL,100,79, 0, '', 'APARELHO RESPIRADOR BIPAP INTERMITENTE', 0.00, NULL, NULL),
(NULL,100,80, 5.5, '', 'KM UTI MOVEL REMOÇAO FORA DO PERIMETRO', 0.00, NULL, NULL),
(NULL,100,81, 3.5, '', 'KM SIMPLES REMOÇÃO FORA DO PERIMETRO', 0.00, NULL, NULL),
(NULL,100,102, 2, '', 'SUPORTE DE SORO', 0.00, NULL, NULL),
(NULL,100,107, 0, '', 'TAXA DE LOGISTICA', 0.00, NULL, NULL);